__CFG_WRT$OFF 0 0 ABS 0
__S0 800B 0 ABS 0
__S1 C4 0 ABS 0
__S2 0 0 ABS 0
__S3 0 0 ABS 0
__size_ofi1_spi_tx 0 0 ABS 0
_SSP1STATbits 214 0 ABS 0
_ISR 4 0 CODE 0
__end_of_eeprom_unlock 4EE 0 CODE 0
__Hintentry 17 0 CODE 0
__Lintentry 4 0 CODE 0
__pintentry 4 0 CODE 0
fetch_device_address@tx_address 53 0 BANK0 1
_command_decode 2AA 0 CODE 0
spi_tx@data_tx 4C 0 BANK0 1
delay_ms@i 5A 0 BANK0 1
_main 2E 0 CODE 0
___sp 0 0 STACK 2
btemp 7E 0 ABS 0
start 17 0 CODE 0
delay_us@i 55 0 BANK0 1
__end_of_eeprom_write_data 474 0 CODE 0
reset_vec 0 0 CODE 0
nrf_read_packet@i 77 0 COMMON 1
wtemp0 7E 0 ABS 0
_STATUS_u 7D 0 COMMON 1
__size_of_nrf_read_STATUS 0 0 ABS 0
__Hconfig 800B 0 CONFIG 0
__Lconfig 8007 0 CONFIG 0
_device_serial 44 0 BANK0 1
_fetch_device_address 136 0 CODE 0
__Hbigram 0 0 ABS 0
__Lbigram 0 0 ABS 0
__Hram 0 0 ABS 0
__Lram 0 0 ABS 0
_nrf_read_packet 25E 0 CODE 0
__size_of_clear_address 0 0 ABS 0
int$flags 7E 0 ABS 0
command_decode@cmd 52 0 BANK0 1
__end_of_ISR 17 0 CODE 0
__end_of_write_device_serial 334 0 CODE 0
__Hfunctab 0 0 ENTRY 0
__Lfunctab 0 0 ENTRY 0
__end_of_command_decode 2F4 0 CODE 0
__Hcommon 0 0 ABS 0
__Lcommon 0 0 ABS 0
_PIE0bits 90 0 ABS 0
_eeprom_read_data 48B 0 CODE 0
__Heeprom_data 0 0 EEDATA 3
__Leeprom_data 0 0 EEDATA 3
_PIR0bits 10 0 ABS 0
_nrf_read_register 3E3 0 CODE 0
_LATAbits 10C 0 ABS 0
_LATCbits 10E 0 ABS 0
___int_sp 0 0 STACK 2
_delay_ms 421 0 CODE 0
__CFG_CLKOUTEN$OFF 0 0 ABS 0
_ANSELA 18C 0 ABS 0
_ANSELB 18D 0 ABS 0
_nrf_init 1D4 0 CODE 0
_ANSELC 18E 0 ABS 0
__CFG_RSTOSC$HFINT1 0 0 ABS 0
__Habs1 0 0 ABS 0
__Labs1 0 0 ABS 0
_NVMDAT 893 0 ABS 0
nrf_read_register@data 78 0 COMMON 1
__Hsfr0 0 0 ABS 0
_delay_us 4A2 0 CODE 0
__Lsfr0 0 0 ABS 0
__Hsfr1 0 0 ABS 0
__Lsfr1 0 0 ABS 0
__Hsfr2 0 0 ABS 0
__Lsfr2 0 0 ABS 0
__Hsfr3 0 0 ABS 0
__Lsfr3 0 0 ABS 0
_RC1PPS EA1 0 ABS 0
__Hsfr4 0 0 ABS 0
_RB6PPS E9E 0 ABS 0
nrf_read_register@addr 76 0 COMMON 1
__Lsfr4 0 0 ABS 0
__Hsfr5 0 0 ABS 0
__Lsfr5 0 0 ABS 0
__Hsfr6 0 0 ABS 0
__Lsfr6 0 0 ABS 0
__Hsfr7 0 0 ABS 0
__Lsfr7 0 0 ABS 0
__Hsfr8 0 0 ABS 0
__Lsfr8 0 0 ABS 0
__Hsfr9 0 0 ABS 0
__Lsfr9 0 0 ABS 0
i1_spi_tx 4B7 0 CODE 0
__end_of_fetch_device_serial 3C2 0 CODE 0
i1spi_tx@data_tx 70 0 COMMON 1
__size_of_spi_enable 0 0 ABS 0
__CFG_PPS1WAY$OFF 0 0 ABS 0
__size_of_eeprom_read_data 0 0 ABS 0
__size_of_spi_tx 0 0 ABS 0
eeprom_write_data@addr_h 4C 0 BANK0 1
__Hcode 0 0 ABS 0
__Lcode 0 0 ABS 0
eeprom_write_data@addr_l 4E 0 BANK0 1
stackhi 23EF 0 ABS 0
command_decode@i 56 0 BANK0 1
__HcstackBANK0 0 0 ABS 0
__LcstackBANK0 0 0 ABS 0
__end_of_delay_us 4B7 0 CODE 0
__pcstackBANK0 4C 0 BANK0 1
stacklo 2074 0 ABS 0
__Hinit 17 0 CODE 0
__Linit 17 0 CODE 0
___wmul 43E 0 CODE 0
__end_of_main 136 0 CODE 0
__Htext 0 0 ABS 0
__Ltext 0 0 ABS 0
_spi_tx 474 0 CODE 0
__end_of_clear_address 398 0 CODE 0
_device_status 4A 0 BANK0 1
___wmul@multiplier 4C 0 BANK0 1
__end_ofi1_nrf_write_register 421 0 CODE 0
__CFG_LVP$ON 0 0 ABS 0
end_of_initialization 2A 0 CODE 0
__size_of_nrf_init 0 0 ABS 0
__CFG_FEXTOSC$OFF 0 0 ABS 0
__size_of_ISR 0 0 ABS 0
_nrf_update_STATUS 4CA 0 CODE 0
___wmul@multiplicand 4E 0 BANK0 1
__Hsfr10 0 0 ABS 0
__Lsfr10 0 0 ABS 0
__Hsfr20 0 0 ABS 0
__Lsfr20 0 0 ABS 0
__Hsfr30 0 0 ABS 0
__Hsfr11 0 0 ABS 0
__Lsfr30 0 0 ABS 0
__Lsfr11 0 0 ABS 0
_NVMCON2 896 0 ABS 0
__Hsfr21 0 0 ABS 0
__Lsfr21 0 0 ABS 0
__Hsfr31 0 0 ABS 0
__Hsfr12 0 0 ABS 0
__Lsfr31 0 0 ABS 0
__Lsfr12 0 0 ABS 0
__Hsfr22 0 0 ABS 0
__Lsfr22 0 0 ABS 0
__Hsfr13 0 0 ABS 0
__Lsfr13 0 0 ABS 0
__Hsfr23 0 0 ABS 0
__size_of_eeprom_unlock 0 0 ABS 0
__Lsfr23 0 0 ABS 0
__Hsfr14 0 0 ABS 0
__Lsfr14 0 0 ABS 0
__Hsfr24 0 0 ABS 0
__Lsfr24 0 0 ABS 0
__Hsfr15 0 0 ABS 0
__Lsfr15 0 0 ABS 0
__Hsfr25 0 0 ABS 0
__Lsfr25 0 0 ABS 0
__Hsfr16 0 0 ABS 0
__end_of_spi_enable 4E3 0 CODE 0
__Lsfr16 0 0 ABS 0
__Hsfr26 0 0 ABS 0
__Lsfr26 0 0 ABS 0
__Hsfr17 0 0 ABS 0
__Lsfr17 0 0 ABS 0
__Hsfr27 0 0 ABS 0
__Lsfr27 0 0 ABS 0
__Hsfr18 0 0 ABS 0
__Lsfr18 0 0 ABS 0
__Hsfr28 0 0 ABS 0
__Lsfr28 0 0 ABS 0
__Hsfr19 0 0 ABS 0
__Lsfr19 0 0 ABS 0
__Hsfr29 0 0 ABS 0
__Lsfr29 0 0 ABS 0
_TRISAbits 8C 0 ABS 0
_TRISBbits 8D 0 ABS 0
_TRISCbits 8E 0 ABS 0
_eeprom_unlock 4E3 0 CODE 0
_PORTCbits E 0 ABS 0
__Hstrings 0 0 ABS 0
__Lstrings 0 0 ABS 0
__size_of_nrf_update_STATUS 0 0 ABS 0
__size_of_nrf_write_register 0 0 ABS 0
eeprom_read_data@data 50 0 BANK0 1
__size_of_nrf_read_packet 0 0 ABS 0
_SSP1BUF 211 0 ABS 0
_FIFO_STATUS_u 7C 0 COMMON 1
__end_of_nrf_init 25E 0 CODE 0
_PPSLOCK E0F 0 ABS 0
_NVMADRH 892 0 ABS 0
_NVMDATH 894 0 ABS 0
_spi_enable 4D8 0 CODE 0
_NVMADRL 891 0 ABS 0
__Hbank0 0 0 ABS 0
__Lbank0 0 0 ABS 0
_NVMDATL 893 0 ABS 0
__size_of_fetch_device_address 0 0 ABS 0
__Hbank1 0 0 ABS 0
__Lbank1 0 0 ABS 0
__Hbank2 0 0 ABS 0
__Lbank2 0 0 ABS 0
__Hbank3 0 0 ABS 0
__Lbank3 0 0 ABS 0
___latbits 2 0 ABS 0
__Hbank4 0 0 ABS 0
__Lbank4 0 0 ABS 0
__Hbank5 0 0 ABS 0
__Lbank5 0 0 ABS 0
__Hpowerup 0 0 CODE 0
__Lpowerup 0 0 CODE 0
__Hbank6 0 0 ABS 0
__Lbank6 0 0 ABS 0
__Hbank7 0 0 ABS 0
__Lbank7 0 0 ABS 0
clear_address@i 60 0 BANK0 1
__Hbank8 0 0 ABS 0
__Lbank8 0 0 ABS 0
_NVMCON1bits 895 0 ABS 0
__Hbank9 0 0 ABS 0
_SSPCON1bits 215 0 ABS 0
__Lbank9 0 0 ABS 0
__ptext1 2F4 0 CODE 0
__ptext2 4D8 0 CODE 0
__ptext3 1D4 0 CODE 0
__ptext4 3C2 0 CODE 0
__ptext5 421 0 CODE 0
?i1_spi_tx 70 0 COMMON 1
__ptext6 4A2 0 CODE 0
__size_of_device_init 0 0 ABS 0
__ptext7 398 0 CODE 0
__ptext8 334 0 CODE 0
__size_of_eeprom_write_data 0 0 ABS 0
__ptext9 2AA 0 CODE 0
__Hclrtext 0 0 ABS 0
__Lclrtext 0 0 ABS 0
__end_of_nrf_update_STATUS 4D8 0 CODE 0
_PPSLOCKbits E0F 0 ABS 0
__end_of__initialization 2A 0 CODE 0
__end_of_fetch_device_address 1D4 0 CODE 0
nrf_write_register@data 54 0 BANK0 1
_SSPSTATbits 214 0 ABS 0
_device_init 334 0 CODE 0
nrf_write_register@addr 52 0 BANK0 1
__Hidloc 0 0 IDLOC 0
__Lidloc 0 0 IDLOC 0
__CFG_STVREN$OFF 0 0 ABS 0
__Hstack 0 0 STACK 2
__Lstack 0 0 STACK 2
i1spi_tx@data_rx 74 0 COMMON 1
__Hspace_0 800B 0 ABS 0
__Lspace_0 0 0 ABS 0
_rx_fifo 20 0 BANK0 1
_tx_fifo A0 0 BANK1 1
__Hspace_1 C4 0 ABS 0
__Lspace_1 0 0 ABS 0
__CFG_BORV$LOW 0 0 ABS 0
__end_of_device_init 367 0 CODE 0
delay_ms@ms 57 0 BANK0 1
__Hspace_2 0 0 ABS 0
__Lspace_2 0 0 ABS 0
?___wmul 4C 0 BANK0 1
__size_of_delay_ms 0 0 ABS 0
__size_of_delay_us 0 0 ABS 0
__Hcinit 2E 0 CODE 0
__Lcinit 19 0 CODE 0
main@dly 66 0 BANK0 1
eeprom_read_data@addr_h 4C 0 BANK0 1
i1nrf_write_register@data 78 0 COMMON 1
__Hspace_3 0 0 ABS 0
__CFG_LPBOREN$OFF 0 0 ABS 0
__Lspace_3 0 0 ABS 0
eeprom_read_data@addr_l 4E 0 BANK0 1
__size_of_main 0 0 ABS 0
_clear_address 367 0 CODE 0
?_spi_tx 4C 0 BANK0 1
i1_nrf_write_register 403 0 CODE 0
__end_of_spi_tx 48B 0 CODE 0
__CFG_MCLRE$OFF 0 0 ABS 0
__CFG_DEBUG$OFF 0 0 ABS 0
i1nrf_write_register@addr 76 0 COMMON 1
clear_ram0 4F9 0 CODE 0
__HbssBANK0 0 0 ABS 0
__LbssBANK0 0 0 ABS 0
__Hbank10 0 0 ABS 0
__pbssBANK0 20 0 BANK0 1
__Lbank10 0 0 ABS 0
__Hbank20 0 0 BANK20 1
__Lbank20 0 0 BANK20 1
__Hbank30 0 0 BANK30 1
__Hbank11 0 0 ABS 0
__Lbank30 0 0 BANK30 1
__Lbank11 0 0 ABS 0
__Hbank21 0 0 BANK21 1
delay_us@us 52 0 BANK0 1
__Lbank21 0 0 BANK21 1
__Hbank31 0 0 BANK31 1
__Hbank12 0 0 ABS 0
__Lbank31 0 0 BANK31 1
__Lbank12 0 0 ABS 0
__Hbank22 0 0 BANK22 1
__Lbank22 0 0 BANK22 1
__Hbank13 0 0 BANK13 1
__Lbank13 0 0 BANK13 1
__HbssBANK1 0 0 ABS 0
__LbssBANK1 0 0 ABS 0
__Hbank23 0 0 BANK23 1
__Lbank23 0 0 BANK23 1
__Hbank14 0 0 BANK14 1
__pbssBANK1 A0 0 BANK1 1
__Lbank14 0 0 BANK14 1
__Hbank24 0 0 BANK24 1
__Lbank24 0 0 BANK24 1
__ptext10 367 0 CODE 0
__Hbank15 0 0 BANK15 1
__Lbank15 0 0 BANK15 1
__ptext20 25E 0 CODE 0
__Hbank25 0 0 BANK25 1
__Lbank25 0 0 BANK25 1
__ptext11 136 0 CODE 0
__Hbank16 0 0 BANK16 1
__Lbank16 0 0 BANK16 1
__ptext21 4EE 0 CODE 0
__Hbank26 0 0 BANK26 1
__Lbank26 0 0 BANK26 1
__ptext12 474 0 CODE 0
__Hbank17 0 0 BANK17 1
__Lbank17 0 0 BANK17 1
__ptext22 3E3 0 CODE 0
__Hbank27 0 0 BANK27 1
__Lbank27 0 0 BANK27 1
__end_of_nrf_read_register 403 0 CODE 0
__ptext13 48B 0 CODE 0
__Hbank18 0 0 BANK18 1
__Lbank18 0 0 BANK18 1
__ptext23 4B7 0 CODE 0
__Hbank28 0 0 BANK28 1
__Lbank28 0 0 BANK28 1
__ptext14 45A 0 CODE 0
__Hbank19 0 0 BANK19 1
__Lbank19 0 0 BANK19 1
__Hbank29 0 0 BANK29 1
__Lbank29 0 0 BANK29 1
__ptext15 4E3 0 CODE 0
__ptext16 43E 0 CODE 0
__CFG_BOREN$OFF 0 0 ABS 0
__size_of_write_device_serial 0 0 ABS 0
__ptext18 4CA 0 CODE 0
__CFG_PWRTE$OFF 0 0 ABS 0
__HbssCOMMON 0 0 ABS 0
__LbssCOMMON 0 0 ABS 0
__ptext19 403 0 CODE 0
__pbssCOMMON 7C 0 COMMON 1
main@rst_sig_f 68 0 BANK0 1
?_eeprom_read_data 4C 0 BANK0 1
__size_of_command_decode 0 0 ABS 0
?_nrf_read_register 76 0 COMMON 1
_INTCONbits B 0 ABS 0
__Hend_init 19 0 CODE 0
__Lend_init 17 0 CODE 0
__CFG_CSWEN$OFF 0 0 ABS 0
__end_of_delay_ms 43E 0 CODE 0
__end_of_nrf_read_STATUS 4F9 0 CODE 0
__size_of___wmul 0 0 ABS 0
__Hreset_vec 2 0 CODE 0
__Lreset_vec 0 0 CODE 0
__end_ofi1_spi_tx 4CA 0 CODE 0
_eeprom_write_data 45A 0 CODE 0
intlevel0 0 0 ENTRY 0
__CFG_WDTE$OFF 0 0 ABS 0
intlevel1 0 0 ENTRY 0
intlevel2 0 0 ENTRY 0
eeprom_write_data@data 50 0 BANK0 1
intlevel3 0 0 ENTRY 0
intlevel4 0 0 ENTRY 0
intlevel5 0 0 ENTRY 0
__size_of_fetch_device_serial 0 0 ABS 0
_nrf_read_STATUS 4EE 0 CODE 0
__HcstackCOMMON 0 0 ABS 0
__LcstackCOMMON 0 0 ABS 0
spi_tx@data_rx 50 0 BANK0 1
_nrf_write_register 3C2 0 CODE 0
__size_ofi1_nrf_write_register 0 0 ABS 0
__pcstackCOMMON 70 0 COMMON 1
__end_of___wmul 45A 0 CODE 0
__CFG_CPD$OFF 0 0 ABS 0
start_initialization 19 0 CODE 0
__Hmaintext 0 0 ABS 0
__Lmaintext 0 0 ABS 0
__end_of_nrf_write_register 3E3 0 CODE 0
__end_of_nrf_read_packet 2AA 0 CODE 0
__pmaintext 2E 0 CODE 0
__initialization 19 0 CODE 0
fetch_device_address@i 5D 0 BANK0 1
_remove_device_f 4B 0 BANK0 1
fetch_device_serial@i 53 0 BANK0 1
_fetch_device_serial 398 0 CODE 0
__size_of_nrf_read_register 0 0 ABS 0
_write_device_serial 2F4 0 CODE 0
___wmul@product 50 0 BANK0 1
__CFG_CP$OFF 0 0 ABS 0
__CFG_FCMEN$ON 0 0 ABS 0
__end_of_eeprom_read_data 4A2 0 CODE 0
main@loop_count 64 0 BANK0 1
%segments
reset_vec 0 3 CODE 0 0
intentry 8 9FD CODE 8 0
config 1000E 10015 CONFIG 1000E 0
cstackCOMMON 70 7D COMMON 70 1
bssBANK0 20 69 BANK0 20 1
bssBANK1 A0 C3 BANK1 A0 1
%locals
dist/default/production/Buzzer_Handle_v0.3.production.o
/tmp/xcXV4ZbvC
3753 19 0 CODE 0
3756 19 0 CODE 0
3810 19 0 CODE 0
3811 1A 0 CODE 0
3815 1B 0 CODE 0
3816 1C 0 CODE 0
3817 1D 0 CODE 0
3818 1E 0 CODE 0
3819 1F 0 CODE 0
3820 20 0 CODE 0
3824 23 0 CODE 0
3825 24 0 CODE 0
3826 25 0 CODE 0
3827 26 0 CODE 0
3828 27 0 CODE 0
3829 28 0 CODE 0
3835 2A 0 CODE 0
3837 2A 0 CODE 0
3838 2B 0 CODE 0
3839 2C 0 CODE 0
3799 4F9 0 CODE 0
3800 4F9 0 CODE 0
3801 4FA 0 CODE 0
3802 4FA 0 CODE 0
3803 4FB 0 CODE 0
3804 4FC 0 CODE 0
3805 4FD 0 CODE 0
3806 4FE 0 CODE 0
main.c
26 2E 0 CODE 0
27 2E 0 CODE 0
28 31 0 CODE 0
31 33 0 CODE 0
33 36 0 CODE 0
34 39 0 CODE 0
36 3D 0 CODE 0
37 40 0 CODE 0
38 43 0 CODE 0
39 46 0 CODE 0
40 49 0 CODE 0
42 4C 0 CODE 0
43 4F 0 CODE 0
44 50 0 CODE 0
45 51 0 CODE 0
46 51 0 CODE 0
50 52 0 CODE 0
55 56 0 CODE 0
56 66 0 CODE 0
57 68 0 CODE 0
60 6A 0 CODE 0
61 6C 0 CODE 0
62 74 0 CODE 0
63 7B 0 CODE 0
64 86 0 CODE 0
65 91 0 CODE 0
66 9C 0 CODE 0
67 A7 0 CODE 0
68 B2 0 CODE 0
70 B4 0 CODE 0
71 B5 0 CODE 0
72 BD 0 CODE 0
74 BF 0 CODE 0
75 C7 0 CODE 0
76 CB 0 CODE 0
80 D5 0 CODE 0
81 E9 0 CODE 0
82 EC 0 CODE 0
85 ED 0 CODE 0
86 EF 0 CODE 0
87 F7 0 CODE 0
88 FF 0 CODE 0
90 101 0 CODE 0
91 102 0 CODE 0
92 10A 0 CODE 0
94 10C 0 CODE 0
95 114 0 CODE 0
96 118 0 CODE 0
100 122 0 CODE 0
101 126 0 CODE 0
105 129 0 CODE 0
107 12C 0 CODE 0
110 133 0 CODE 0
109 135 0 CODE 0
device.c
174 2F4 0 CODE 0
175 2F4 0 CODE 0
176 304 0 CODE 0
177 314 0 CODE 0
178 324 0 CODE 0
179 333 0 CODE 0
spi.c
3 4D8 0 CODE 0
4 4D8 0 CODE 0
5 4DA 0 CODE 0
7 4DE 0 CODE 0
8 4DF 0 CODE 0
9 4E0 0 CODE 0
11 4E1 0 CODE 0
nrf24l01+.c
4 1D4 0 CODE 0
5 1D4 0 CODE 0
6 1D6 0 CODE 0
7 1D7 0 CODE 0
9 1DF 0 CODE 0
10 1EA 0 CODE 0
11 1F6 0 CODE 0
12 202 0 CODE 0
14 20E 0 CODE 0
15 21A 0 CODE 0
16 226 0 CODE 0
17 232 0 CODE 0
18 23E 0 CODE 0
19 24A 0 CODE 0
21 256 0 CODE 0
22 25D 0 CODE 0
85 3C2 0 CODE 0
86 3C2 0 CODE 0
87 3C9 0 CODE 0
89 3CF 0 CODE 0
90 3D1 0 CODE 0
91 3D9 0 CODE 0
92 3E0 0 CODE 0
94 3E2 0 CODE 0
device.c
53 421 0 CODE 0
55 421 0 CODE 0
56 430 0 CODE 0
55 438 0 CODE 0
60 4A2 0 CODE 0
62 4A2 0 CODE 0
166 398 0 CODE 0
169 398 0 CODE 0
170 3A6 0 CODE 0
169 3BD 0 CODE 0
3 334 0 CODE 0
5 334 0 CODE 0
6 336 0 CODE 0
7 337 0 CODE 0
10 338 0 CODE 0
11 33A 0 CODE 0
15 33C 0 CODE 0
16 33D 0 CODE 0
17 340 0 CODE 0
18 342 0 CODE 0
20 343 0 CODE 0
21 346 0 CODE 0
24 348 0 CODE 0
25 349 0 CODE 0
26 34C 0 CODE 0
27 34E 0 CODE 0
31 34F 0 CODE 0
32 351 0 CODE 0
33 352 0 CODE 0
34 353 0 CODE 0
35 354 0 CODE 0
36 355 0 CODE 0
37 356 0 CODE 0
38 357 0 CODE 0
39 358 0 CODE 0
40 359 0 CODE 0
41 35A 0 CODE 0
44 35B 0 CODE 0
45 35D 0 CODE 0
46 35E 0 CODE 0
47 35F 0 CODE 0
48 361 0 CODE 0
49 362 0 CODE 0
50 364 0 CODE 0
51 366 0 CODE 0
100 2AA 0 CODE 0
102 2AA 0 CODE 0
104 2AF 0 CODE 0
109 2B0 0 CODE 0
110 2BD 0 CODE 0
109 2D5 0 CODE 0
114 2DB 0 CODE 0
115 2DB 0 CODE 0
120 2DD 0 CODE 0
121 2DE 0 CODE 0
122 2DE 0 CODE 0
123 2DF 0 CODE 0
104 2E0 0 CODE 0
124 2F3 0 CODE 0
150 367 0 CODE 0
152 367 0 CODE 0
153 375 0 CODE 0
152 385 0 CODE 0
155 395 0 CODE 0
156 397 0 CODE 0
126 136 0 CODE 0
130 136 0 CODE 0
131 144 0 CODE 0
130 159 0 CODE 0
134 168 0 CODE 0
135 16A 0 CODE 0
136 172 0 CODE 0
137 180 0 CODE 0
136 18C 0 CODE 0
139 19C 0 CODE 0
141 19E 0 CODE 0
142 19F 0 CODE 0
143 1A7 0 CODE 0
144 1B5 0 CODE 0
143 1C1 0 CODE 0
146 1D1 0 CODE 0
148 1D3 0 CODE 0
spi.c
16 474 0 CODE 0
19 474 0 CODE 0
20 478 0 CODE 0
22 47A 0 CODE 0
23 482 0 CODE 0
25 485 0 CODE 0
device.c
87 48B 0 CODE 0
90 48B 0 CODE 0
91 48D 0 CODE 0
92 491 0 CODE 0
93 495 0 CODE 0
95 496 0 CODE 0
97 49D 0 CODE 0
75 45A 0 CODE 0
76 45A 0 CODE 0
77 45C 0 CODE 0
79 45D 0 CODE 0
80 461 0 CODE 0
81 465 0 CODE 0
82 46D 0 CODE 0
83 470 0 CODE 0
65 4E3 0 CODE 0
66 4E3 0 CODE 0
67 4E4 0 CODE 0
68 4E7 0 CODE 0
69 4E9 0 CODE 0
70 4EA 0 CODE 0
71 4EB 0 CODE 0
72 4EC 0 CODE 0
73 4ED 0 CODE 0
/opt/microchip/xc8/v2.00/pic/sources/c90/common/Umul16.c
15 43E 0 CODE 0
43 43E 0 CODE 0
45 441 0 CODE 0
46 443 0 CODE 0
47 447 0 CODE 0
48 44C 0 CODE 0
49 451 0 CODE 0
52 455 0 CODE 0
53 4 0 CODE 0
main.c
10 4 0 CODE 0
11 6 0 CODE 0
13 9 0 CODE 0
14 B 0 CODE 0
15 E 0 CODE 0
16 F 0 CODE 0
17 10 0 CODE 0
18 11 0 CODE 0
21 13 0 CODE 0
22 15 0 CODE 0
nrf24l01+.c
96 4CA 0 CODE 0
97 4CA 0 CODE 0
98 4D7 0 CODE 0
85 403 0 CODE 0
86 403 0 CODE 0
87 409 0 CODE 0
89 40F 0 CODE 0
90 411 0 CODE 0
91 418 0 CODE 0
92 41E 0 CODE 0
94 420 0 CODE 0
54 25E 0 CODE 0
57 25E 0 CODE 0
58 260 0 CODE 0
59 267 0 CODE 0
60 273 0 CODE 0
62 275 0 CODE 0
63 276 0 CODE 0
64 27D 0 CODE 0
65 28B 0 CODE 0
64 29A 0 CODE 0
67 29F 0 CODE 0
69 2A1 0 CODE 0
70 2A7 0 CODE 0
71 2A9 0 CODE 0
100 4EE 0 CODE 0
101 4EE 0 CODE 0
102 4F8 0 CODE 0
73 3E3 0 CODE 0
75 3E3 0 CODE 0
77 3E9 0 CODE 0
78 3EB 0 CODE 0
79 3F2 0 CODE 0
80 3FC 0 CODE 0
82 3FE 0 CODE 0
spi.c
16 4B7 0 CODE 0
19 4B7 0 CODE 0
20 4BA 0 CODE 0
22 4BC 0 CODE 0
23 4C3 0 CODE 0
25 4C5 0 CODE 0
